module gitlab.com/mvenezia/cma-eks

require (
	github.com/aws/aws-sdk-go v1.15.22
	github.com/fsnotify/fsnotify v1.4.7 // indirect
	github.com/go-ini/ini v1.38.2 // indirect
	github.com/hashicorp/hcl v1.0.0 // indirect
	github.com/inconshreveable/mousetrap v1.0.0 // indirect
	github.com/magiconair/properties v1.8.0 // indirect
	github.com/mitchellh/mapstructure v1.0.0 // indirect
	github.com/pelletier/go-toml v1.2.0 // indirect
	github.com/spf13/afero v1.1.1 // indirect
	github.com/spf13/cast v1.2.0 // indirect
	github.com/spf13/cobra v0.0.3
	github.com/spf13/jwalterweatherman v0.0.0-20180814060501-14d3d4c51834 // indirect
	github.com/spf13/pflag v1.0.2 // indirect
	github.com/spf13/viper v1.1.0
	golang.org/x/sys v0.0.0-20180824143301-4910a1d54f87 // indirect
	golang.org/x/text v0.3.0 // indirect
	gopkg.in/yaml.v2 v2.2.1 // indirect
)
